    28
 1 LA 0.000205321 -0.054582 -5.87387e-05 284
 2 O -1.88835 0.846598 1.56517 22 10 11
 3 O -0.00101972 -1.372 2.27353 22 20 21
 4 O 1.88492 0.849272 1.56767 22 24 25
 5 O 1.88787 -1.86078 -0.000457209 22 18 19
 6 O 1.88856 0.851363 -1.56225 22 12 13
 7 O -1.88686 0.850441 -1.56504 22 14 15
 8 O -0.00159706 3.37354 0.00261414 22 22 23
 9 O -1.88683 -1.86287 -0.00355237 22 16 17
 10 H -1.94527 0.723099 2.52607 23 2
 11 H -2.69297 1.33229 1.32368 23 2
 12 H 2.69215 1.33823 -1.31974 23 6
 13 H 1.94647 0.7285 -2.52317 23 6
 14 H -1.94357 1.74478 -1.93754 23 7
 15 H -2.69073 0.398366 -1.86681 23 7
 16 H -1.9433 -2.63324 -0.591048 23 9
 17 H -2.69165 -1.89691 0.537496 23 9
 18 H 2.69277 -1.89357 -0.541453 23 5
 19 H 1.94447 -2.63215 0.585704 23 5
 20 H -0.538089 -2.14619 2.50494 23 3
 21 H 0.534271 -1.1888 3.06174 23 3
 22 H 0.535326 3.96354 -0.549651 23 8
 23 H -0.539089 3.96208 0.555885 23 8
 24 H 1.94089 1.74268 1.94254 23 4
 25 H 2.68875 0.396823 1.86894 23 4
 26 O 0.00244109 -1.36449 -2.27744 22 27 28
 27 H 0.53868 -2.13835 -2.51189 23 26
 28 H -0.533913 -1.17865 -3.0643 23 26
