    28
 1 LA 0.00045033 -0.0171617 -6.29721e-05 284
 2 O -1.9017 0.851812 1.56691 22 10 11
 3 O 0.0195817 -1.33883 2.27097 22 20 21
 4 O 1.87108 0.912568 1.5694 22 24 25
 5 O 1.9157 -1.79408 -0.0039593 22 18 19
 6 O 1.87458 0.920763 -1.5605 22 12 13
 7 O -1.90037 0.861726 -1.56329 22 14 15
 8 O -0.0453706 2.86059 0.00774398 22 22 23
 9 O -1.85853 -1.85427 -0.00704441 22 16 17
 10 H -1.95668 0.725594 2.52757 23 2
 11 H -2.71371 1.32553 1.32636 23 2
 12 H 2.67059 1.41948 -1.31706 23 6
 13 H 1.93434 0.800663 -2.52166 23 6
 14 H -1.97086 1.7558 -1.93405 23 7
 15 H -2.6972 0.397913 -1.86592 23 7
 16 H -1.90315 -2.62428 -0.596027 23 9
 17 H -2.6627 -1.90175 0.53394 23 9
 18 H 2.72099 -1.81343 -0.54502 23 5
 19 H 1.98419 -2.56562 0.580711 23 5
 20 H -0.505497 -2.12165 2.50089 23 3
 21 H 0.552015 -1.14894 3.05954 23 3
 22 H 0.482388 3.45985 -0.543381 23 8
 23 H -0.591841 3.43972 0.562153 23 8
 24 H 1.9133 1.806 1.946 23 4
 25 H 2.68179 0.471966 1.8698 23 4
 26 O 0.0227747 -1.32248 -2.27997 22 27 28
 27 H 0.570855 -2.08753 -2.51591 23 26
 28 H -0.516403 -1.1434 -3.06647 23 26
